# MagicaVoxel @ Ephtracy

# material
mtllib salmon.mtl
usemtl palette

# normals
vn -1 0 0
vn 1 0 0
vn 0 0 1
vn 0 0 -1
vn 0 -1 0
vn 0 1 0

# texcoords
vt 0.0605469 0.5
vt 0.0917969 0.5
vt 0.958984 0.5

# verts
v -4 3 -7
v -4 3 -8
v -4 4 8
v -4 4 -7
v -4 4 -8
v -4 5 8
v -4 5 7
v -4 5 5
v -4 5 4
v -4 5 2
v -4 5 1
v -4 5 -1
v -4 5 -2
v -4 5 -4
v -4 5 -5
v -4 5 -7
v -4 6 7
v -4 6 5
v -4 6 4
v -4 6 2
v -4 6 1
v -4 6 -1
v -4 6 -2
v -4 6 -4
v -4 6 -5
v -3 0 7
v -3 0 -7
v -3 3 -7
v -3 4 7
v -3 4 -7
v 2 0 7
v 2 0 -7
v 2 3 -7
v 2 4 7
v 2 4 -7
v 3 3 -7
v 3 3 -8
v 3 4 8
v 3 4 -7
v 3 4 -8
v 3 5 8
v 3 5 7
v 3 5 6
v 3 5 3
v 3 5 2
v 3 5 -0
v 3 5 -1
v 3 5 -3
v 3 5 -4
v 3 5 -5
v 3 5 -7
v 3 6 7
v 3 6 6
v 3 6 3
v 3 6 2
v 3 6 -0
v 3 6 -1
v 3 6 -3
v 3 6 -4
v 3 6 -5
v -4 4 8
v -4 5 8
v 3 4 8
v 3 5 8
v -4 5 7
v -4 6 7
v -3 0 7
v -3 4 7
v 2 0 7
v 2 4 7
v 2 5 7
v 2 6 7
v 3 5 7
v 3 6 7
v -4 3 -7
v -4 4 -7
v -3 3 -7
v -3 4 -7
v 2 3 -7
v 2 4 -7
v 3 3 -7
v 3 4 -7
v -4 5 -5
v -4 6 -5
v -1 5 -5
v -1 6 -5
v 2 5 -5
v 3 5 -5
v 3 6 -5
v -4 4 -7
v -4 5 -7
v -3 0 -7
v -3 3 -7
v 2 0 -7
v 2 3 -7
v 3 4 -7
v 3 5 -7
v -4 3 -8
v -4 4 -8
v 3 3 -8
v 3 4 -8
v -3 0 7
v 2 0 7
v -3 0 -7
v 2 0 -7
v -4 3 -7
v -3 3 -7
v 2 3 -7
v 3 3 -7
v -4 3 -8
v 3 3 -8
v -4 4 8
v 3 4 8
v -3 4 7
v 2 4 7
v -4 4 -7
v -3 4 -7
v 2 4 -7
v 3 4 -7
v -4 4 -7
v 3 4 -7
v -4 4 -8
v 3 4 -8
v -4 5 8
v 3 5 8
v -4 5 7
v 2 5 7
v 3 5 7
v -4 5 -5
v -1 5 -5
v 2 5 -5
v 3 5 -5
v -1 5 -6
v 2 5 -6
v -4 5 -7
v 3 5 -7
v -4 6 7
v 2 6 7
v 3 6 7
v 2 6 6
v 3 6 6
v -4 6 5
v -1 6 5
v -4 6 4
v -1 6 4
v 2 6 4
v -1 6 3
v 2 6 3
v 3 6 3
v -4 6 2
v -1 6 2
v 2 6 2
v 3 6 2
v -4 6 1
v -1 6 1
v 2 6 1
v -1 6 -0
v 2 6 -0
v 3 6 -0
v -4 6 -1
v -1 6 -1
v 2 6 -1
v 3 6 -1
v -4 6 -2
v -1 6 -2
v 2 6 -2
v -1 6 -3
v 2 6 -3
v 3 6 -3
v -4 6 -4
v -1 6 -4
v 2 6 -4
v 3 6 -4
v -4 6 -5
v -1 6 -5
v 3 6 -5

# faces
f 4/2/1 2/2/1 1/2/1
f 5/2/1 2/2/1 4/2/1
f 6/2/1 4/2/1 3/2/1
f 7/2/1 4/2/1 6/2/1
f 8/2/1 4/2/1 7/2/1
f 9/2/1 4/2/1 8/2/1
f 10/2/1 4/2/1 9/2/1
f 11/2/1 4/2/1 10/2/1
f 12/2/1 4/2/1 11/2/1
f 13/2/1 4/2/1 12/2/1
f 14/2/1 4/2/1 13/2/1
f 15/2/1 4/2/1 14/2/1
f 16/2/1 4/2/1 15/2/1
f 17/2/1 8/2/1 7/2/1
f 18/1/1 9/1/1 8/1/1
f 18/2/1 8/2/1 17/2/1
f 19/2/1 10/2/1 9/2/1
f 19/1/1 9/1/1 18/1/1
f 20/1/1 11/1/1 10/1/1
f 20/2/1 10/2/1 19/2/1
f 21/2/1 12/2/1 11/2/1
f 21/1/1 11/1/1 20/1/1
f 22/1/1 13/1/1 12/1/1
f 22/2/1 12/2/1 21/2/1
f 23/2/1 14/2/1 13/2/1
f 23/1/1 13/1/1 22/1/1
f 24/1/1 15/1/1 14/1/1
f 24/2/1 14/2/1 23/2/1
f 25/1/1 15/1/1 24/1/1
f 28/3/1 27/3/1 26/3/1
f 29/3/1 28/3/1 26/3/1
f 30/3/1 28/3/1 29/3/1
f 31/3/2 32/3/2 33/3/2
f 31/3/2 33/3/2 34/3/2
f 34/3/2 33/3/2 35/3/2
f 36/2/2 37/2/2 39/2/2
f 39/2/2 37/2/2 40/2/2
f 38/2/2 39/2/2 41/2/2
f 41/2/2 39/2/2 42/2/2
f 42/2/2 39/2/2 43/2/2
f 43/2/2 39/2/2 44/2/2
f 44/2/2 39/2/2 45/2/2
f 45/2/2 39/2/2 46/2/2
f 46/2/2 39/2/2 47/2/2
f 47/2/2 39/2/2 48/2/2
f 48/2/2 39/2/2 49/2/2
f 49/2/2 39/2/2 50/2/2
f 50/2/2 39/2/2 51/2/2
f 42/1/2 43/1/2 52/1/2
f 43/2/2 44/2/2 53/2/2
f 52/1/2 43/1/2 53/1/2
f 44/1/2 45/1/2 54/1/2
f 53/2/2 44/2/2 54/2/2
f 45/2/2 46/2/2 55/2/2
f 54/1/2 45/1/2 55/1/2
f 46/1/2 47/1/2 56/1/2
f 55/2/2 46/2/2 56/2/2
f 47/2/2 48/2/2 57/2/2
f 56/1/2 47/1/2 57/1/2
f 48/1/2 49/1/2 58/1/2
f 57/2/2 48/2/2 58/2/2
f 49/2/2 50/2/2 59/2/2
f 58/1/2 49/1/2 59/1/2
f 59/2/2 50/2/2 60/2/2
f 63/2/3 62/2/3 61/2/3
f 64/2/3 62/2/3 63/2/3
f 69/3/3 68/3/3 67/3/3
f 70/3/3 68/3/3 69/3/3
f 71/2/3 66/2/3 65/2/3
f 72/2/3 66/2/3 71/2/3
f 73/1/3 72/1/3 71/1/3
f 74/1/3 72/1/3 73/1/3
f 77/2/3 76/2/3 75/2/3
f 78/2/3 76/2/3 77/2/3
f 81/2/3 80/2/3 79/2/3
f 82/2/3 80/2/3 81/2/3
f 83/1/4 84/1/4 85/1/4
f 85/1/4 84/1/4 86/1/4
f 85/2/4 86/2/4 87/2/4
f 87/2/4 86/2/4 88/2/4
f 88/2/4 86/2/4 89/2/4
f 92/3/4 93/3/4 94/3/4
f 94/3/4 93/3/4 95/3/4
f 90/2/4 91/2/4 96/2/4
f 96/2/4 91/2/4 97/2/4
f 98/2/4 99/2/4 100/2/4
f 100/2/4 99/2/4 101/2/4
f 104/3/5 103/3/5 102/3/5
f 105/3/5 103/3/5 104/3/5
f 110/2/5 107/2/5 106/2/5
f 110/2/5 109/2/5 108/2/5
f 110/2/5 108/2/5 107/2/5
f 111/2/5 109/2/5 110/2/5
f 114/2/5 113/2/5 112/2/5
f 115/2/5 113/2/5 114/2/5
f 116/2/5 114/2/5 112/2/5
f 117/2/5 114/2/5 116/2/5
f 118/2/5 113/2/5 115/2/5
f 119/2/5 113/2/5 118/2/5
f 120/2/6 121/2/6 122/2/6
f 122/2/6 121/2/6 123/2/6
f 124/2/6 125/2/6 126/2/6
f 126/2/6 125/2/6 127/2/6
f 127/2/6 125/2/6 128/2/6
f 129/2/6 130/2/6 133/2/6
f 130/1/6 131/1/6 133/1/6
f 131/2/6 132/2/6 134/2/6
f 133/1/6 131/1/6 134/1/6
f 129/2/6 133/2/6 135/2/6
f 133/2/6 134/2/6 135/2/6
f 134/2/6 132/2/6 136/2/6
f 135/2/6 134/2/6 136/2/6
f 137/2/6 138/2/6 140/2/6
f 138/1/6 139/1/6 140/1/6
f 140/1/6 139/1/6 141/1/6
f 137/2/6 140/2/6 142/2/6
f 140/2/6 141/2/6 142/2/6
f 142/2/6 141/2/6 143/2/6
f 142/1/6 143/1/6 144/1/6
f 143/2/6 141/2/6 145/2/6
f 144/1/6 143/1/6 145/1/6
f 145/2/6 141/2/6 146/2/6
f 144/2/6 145/2/6 147/2/6
f 145/1/6 146/1/6 147/1/6
f 146/2/6 141/2/6 148/2/6
f 147/1/6 146/1/6 148/1/6
f 148/2/6 141/2/6 149/2/6
f 144/2/6 147/2/6 150/2/6
f 147/2/6 148/2/6 150/2/6
f 150/2/6 148/2/6 151/2/6
f 148/1/6 149/1/6 152/1/6
f 151/2/6 148/2/6 152/2/6
f 152/1/6 149/1/6 153/1/6
f 150/1/6 151/1/6 154/1/6
f 151/2/6 152/2/6 155/2/6
f 154/1/6 151/1/6 155/1/6
f 152/2/6 153/2/6 155/2/6
f 155/2/6 153/2/6 156/2/6
f 154/2/6 155/2/6 157/2/6
f 155/1/6 156/1/6 157/1/6
f 156/2/6 153/2/6 158/2/6
f 157/1/6 156/1/6 158/1/6
f 158/2/6 153/2/6 159/2/6
f 154/2/6 157/2/6 160/2/6
f 157/2/6 158/2/6 160/2/6
f 160/2/6 158/2/6 161/2/6
f 158/1/6 159/1/6 162/1/6
f 161/2/6 158/2/6 162/2/6
f 162/1/6 159/1/6 163/1/6
f 160/1/6 161/1/6 164/1/6
f 161/2/6 162/2/6 165/2/6
f 164/1/6 161/1/6 165/1/6
f 162/2/6 163/2/6 165/2/6
f 165/2/6 163/2/6 166/2/6
f 164/2/6 165/2/6 167/2/6
f 165/1/6 166/1/6 167/1/6
f 166/2/6 163/2/6 168/2/6
f 167/1/6 166/1/6 168/1/6
f 168/2/6 163/2/6 169/2/6
f 164/2/6 167/2/6 170/2/6
f 167/2/6 168/2/6 170/2/6
f 170/2/6 168/2/6 171/2/6
f 168/1/6 169/1/6 172/1/6
f 171/2/6 168/2/6 172/2/6
f 172/1/6 169/1/6 173/1/6
f 170/1/6 171/1/6 174/1/6
f 171/2/6 172/2/6 175/2/6
f 174/1/6 171/1/6 175/1/6
f 172/2/6 173/2/6 175/2/6
f 175/2/6 173/2/6 176/2/6
