# MagicaVoxel @ Ephtracy

# material
mtllib sea_urchin.mtl
usemtl palette

# normals
vn -1 0 0
vn 1 0 0
vn 0 0 1
vn 0 0 -1
vn 0 -1 0
vn 0 1 0

# texcoords
vt 0.0917969 0.5
vt 0.958984 0.5
vt 0.990234 0.5

# verts
v -5 0 7
v -5 0 -7
v -5 6 7
v -5 6 -7
v -4 0 8
v -4 0 7
v -4 0 -7
v -4 0 -8
v -4 6 8
v -4 6 7
v -4 6 -7
v -4 6 -8
v -3 5 -6
v -3 5 -7
v -3 6 5
v -3 6 -6
v -3 6 -7
v -3 7 5
v -3 7 -6
v 3 5 7
v 3 5 6
v 3 5 -6
v 3 5 -7
v 3 6 7
v 3 6 6
v 3 6 -6
v 3 6 -7
v -4 5 7
v -4 5 6
v -4 5 -6
v -4 5 -7
v -4 6 7
v -4 6 6
v -4 6 -6
v -4 6 -7
v 2 5 -6
v 2 5 -7
v 2 6 5
v 2 6 -6
v 2 6 -7
v 2 7 5
v 2 7 -6
v 3 0 8
v 3 0 7
v 3 0 -7
v 3 0 -8
v 3 6 8
v 3 6 7
v 3 6 -7
v 3 6 -8
v 4 0 7
v 4 0 -7
v 4 6 7
v 4 6 -7
v -4 0 8
v -4 6 8
v 3 0 8
v 3 6 8
v -5 0 7
v -5 6 7
v -4 0 7
v -4 6 7
v 3 0 7
v 3 6 7
v 4 0 7
v 4 6 7
v -4 5 6
v -4 6 6
v 3 5 6
v 3 6 6
v -3 6 5
v -3 7 5
v 2 6 5
v 2 7 5
v -4 5 -7
v -4 6 -7
v -3 5 -7
v -3 6 -7
v 2 5 -7
v 2 6 -7
v 3 5 -7
v 3 6 -7
v -4 5 7
v -4 6 7
v 3 5 7
v 3 6 7
v -4 5 -6
v -4 6 -6
v -3 5 -6
v -3 6 -6
v -3 7 -6
v 2 5 -6
v 2 6 -6
v 2 7 -6
v 3 5 -6
v 3 6 -6
v -5 0 -7
v -5 6 -7
v -4 0 -7
v -4 6 -7
v 3 0 -7
v 3 6 -7
v 4 0 -7
v 4 6 -7
v -4 0 -8
v -4 6 -8
v 3 0 -8
v 3 6 -8
v -4 0 8
v 3 0 8
v -5 0 7
v -4 0 7
v -3 0 7
v 2 0 7
v 3 0 7
v 4 0 7
v -5 0 -7
v -4 0 -7
v -3 0 -7
v 2 0 -7
v 3 0 -7
v 4 0 -7
v -4 0 -8
v 3 0 -8
v -4 5 7
v 3 5 7
v -4 5 6
v 3 5 6
v -4 5 -6
v -3 5 -6
v 2 5 -6
v 3 5 -6
v -4 5 -7
v -3 5 -7
v 2 5 -7
v 3 5 -7
v -4 6 8
v 3 6 8
v -5 6 7
v -4 6 7
v 3 6 7
v 4 6 7
v -4 6 6
v 3 6 6
v -3 6 5
v 2 6 5
v -4 6 -6
v -3 6 -6
v 2 6 -6
v 3 6 -6
v -5 6 -7
v -4 6 -7
v -3 6 -7
v 2 6 -7
v 3 6 -7
v 4 6 -7
v -4 6 -8
v 3 6 -8
v -3 7 5
v 2 7 5
v -3 7 -6
v 2 7 -6

# faces
f 3/3/1 2/3/1 1/3/1
f 4/3/1 2/3/1 3/3/1
f 9/3/1 6/3/1 5/3/1
f 10/3/1 6/3/1 9/3/1
f 11/3/1 8/3/1 7/3/1
f 12/3/1 8/3/1 11/3/1
f 16/1/1 14/1/1 13/1/1
f 17/1/1 14/1/1 16/1/1
f 18/1/1 16/1/1 15/1/1
f 19/1/1 16/1/1 18/1/1
f 24/3/1 21/3/1 20/3/1
f 25/3/1 21/3/1 24/3/1
f 26/3/1 23/3/1 22/3/1
f 27/3/1 23/3/1 26/3/1
f 28/3/2 29/3/2 32/3/2
f 32/3/2 29/3/2 33/3/2
f 30/3/2 31/3/2 34/3/2
f 34/3/2 31/3/2 35/3/2
f 36/1/2 37/1/2 39/1/2
f 39/1/2 37/1/2 40/1/2
f 38/1/2 39/1/2 41/1/2
f 41/1/2 39/1/2 42/1/2
f 43/3/2 44/3/2 47/3/2
f 47/3/2 44/3/2 48/3/2
f 45/3/2 46/3/2 49/3/2
f 49/3/2 46/3/2 50/3/2
f 51/3/2 52/3/2 53/3/2
f 53/3/2 52/3/2 54/3/2
f 57/3/3 56/3/3 55/3/3
f 58/3/3 56/3/3 57/3/3
f 61/3/3 60/3/3 59/3/3
f 62/3/3 60/3/3 61/3/3
f 65/3/3 64/3/3 63/3/3
f 66/3/3 64/3/3 65/3/3
f 69/1/3 68/1/3 67/1/3
f 70/1/3 68/1/3 69/1/3
f 73/1/3 72/1/3 71/1/3
f 74/1/3 72/1/3 73/1/3
f 77/3/3 76/3/3 75/3/3
f 78/3/3 76/3/3 77/3/3
f 81/3/3 80/3/3 79/3/3
f 82/3/3 80/3/3 81/3/3
f 83/3/4 84/3/4 85/3/4
f 85/3/4 84/3/4 86/3/4
f 87/1/4 88/1/4 89/1/4
f 89/1/4 88/1/4 90/1/4
f 90/1/4 91/1/4 93/1/4
f 93/1/4 91/1/4 94/1/4
f 92/1/4 93/1/4 95/1/4
f 95/1/4 93/1/4 96/1/4
f 97/3/4 98/3/4 99/3/4
f 99/3/4 98/3/4 100/3/4
f 101/3/4 102/3/4 103/3/4
f 103/3/4 102/3/4 104/3/4
f 105/3/4 106/3/4 107/3/4
f 107/3/4 106/3/4 108/3/4
f 112/3/5 110/3/5 109/3/5
f 113/3/5 110/3/5 112/3/5
f 114/3/5 110/3/5 113/3/5
f 115/3/5 110/3/5 114/3/5
f 117/3/5 112/3/5 111/3/5
f 117/3/5 113/3/5 112/3/5
f 118/3/5 113/3/5 117/3/5
f 119/2/5 114/2/5 113/2/5
f 119/3/5 113/3/5 118/3/5
f 120/3/5 116/3/5 115/3/5
f 120/2/5 114/2/5 119/2/5
f 120/3/5 115/3/5 114/3/5
f 121/3/5 116/3/5 120/3/5
f 122/3/5 116/3/5 121/3/5
f 123/3/5 119/3/5 118/3/5
f 123/3/5 121/3/5 120/3/5
f 123/3/5 120/3/5 119/3/5
f 124/3/5 121/3/5 123/3/5
f 125/2/6 126/2/6 127/2/6
f 127/2/6 126/2/6 128/2/6
f 129/2/6 130/2/6 133/2/6
f 133/2/6 130/2/6 134/2/6
f 131/2/6 132/2/6 135/2/6
f 135/2/6 132/2/6 136/2/6
f 137/3/6 138/3/6 140/3/6
f 140/3/6 138/3/6 141/3/6
f 139/3/6 140/3/6 143/3/6
f 141/3/6 142/3/6 144/3/6
f 143/1/6 144/1/6 145/1/6
f 145/1/6 144/1/6 146/1/6
f 139/3/6 143/3/6 147/3/6
f 143/1/6 145/1/6 147/1/6
f 147/1/6 145/1/6 148/1/6
f 146/1/6 144/1/6 149/1/6
f 144/3/6 142/3/6 150/3/6
f 149/1/6 144/1/6 150/1/6
f 139/3/6 147/3/6 151/3/6
f 151/3/6 147/3/6 152/3/6
f 148/1/6 149/1/6 153/1/6
f 153/1/6 149/1/6 154/1/6
f 150/3/6 142/3/6 155/3/6
f 155/3/6 142/3/6 156/3/6
f 153/3/6 154/3/6 157/3/6
f 154/3/6 155/3/6 157/3/6
f 152/3/6 153/3/6 157/3/6
f 157/3/6 155/3/6 158/3/6
f 159/1/6 160/1/6 161/1/6
f 161/1/6 160/1/6 162/1/6
